{"name": "fivetran-api-playground", "metadata": {"name": "fivetran-api-playground", "version": "0.12.12.1", "classifiers": ["License :: OSI Approved :: MIT License", "Operating System :: OS Independent", "Programming Language :: Python :: 3"], "home_page": null, "license": null, "documentation_url": null, "dependencies": ["flask", "faker", "requests"], "summary": "Fivetran API Examples to build custom connectors", "upload_time": 1734001938}, "documentation": ["# Fivetran API Playground\n[![Downloads](https://static.pepy.tech/badge/fivetran-api-playground)](https://pepy.tech/project/fivetran-api-playground)\n\nThe Fivetran API Playground enables you to explore various sample API endpoints on your local machine, helping you better understand the complexities of real-world APIs. It serves as a hands-on learning tool for building connectors, allowing you to write custom Python code within [Fivetran's](https://www.fivetran.com/) secure cloud environment. For more information, see our [Connector SDK documentation](https://fivetran.com/docs/connectors/connector-sdk).\n\n## **Install**\n\n    pip install fivetran-api-playground\n\n## **Requirements**\n- Python \u22653.9 and \u22643.12\n- Operating System:\n    - Windows 10 or later\n    - MacOS 13 (Ventura) or later\n\n## Usage\nTo start the API, run the following command:\n\n```bash\nplayground start  # starts the server on 5001 port by default\n\nplayground start --port \n# starts the server on the specified port\n```\n\nYou will see a message like:\n```\nStarting Local API on port 5001 ...\n--------------------------------------------------------------------------------------------------------------------------------------------\nPagination Type                | Endpoint                                          \n--------------------------------------------------------------------------------------------------------------------------------------------\nNext Page URL Pagination       | GET http://127.0.0.1:5001/pagination/next_page_url\nPage Number Pagination         | GET http://127.0.0.1:5001/pagination/page_number  \nOffset Pagination              | GET http://127.0.0.1:5001/pagination/offset       \nKeyset Pagination              | GET http://127.0.0.1:5001/pagination/keyset       \n--------------------------------------------------------------------------------------------------------------------------------------------\n--------------------------------------------------------------------------------------------------------------------------------------------\nAPI Endpoint Type              | Endpoint                                          \n--------------------------------------------------------------------------------------------------------------------------------------------\nExport with CSV                | GET http://127.0.0.1:5001/export/csv              \n--------------------------------------------------------------------------------------------------------------------------------------------\n--------------------------------------------------------------------------------------------------------------------------------------------\nAuthentication Endpoint Type   | Endpoint                                           | Credentials                                       \n--------------------------------------------------------------------------------------------------------------------------------------------\nHttp Basic Auth                | GET http://127.0.0.1:5001/auth/http_basic          | Username: 4779a@example.com Password: 673727a8    \nHTTP Bearer                    | GET http://127.0.0.1:5001/auth/http_bearer         | Bearer Token: 69574aad-4d3f-4fb5-9903-caba56ad9de1\nAuth API Key                   | GET http://127.0.0.1:5001/auth/api_key             | API Key: 3e4cdf4d-f81c-4ee8-8218-3fd0cb22aeae     \nSession Token Auth Login       | GET http://127.0.0.1:5001/auth/session_token/login | Username: e7ccb@example.com  Password: 3c89b9bb2a \nSession Token Auth Data        | GET http://127.0.0.1:5001/auth/session_token/data  | Use Token Received from Login endpoint            \n--------------------------------------------------------------------------------------------------------------------------------------------\nYou can read about the API documentation for each endpoint on: \nhttps://pypi.org/project/fivetran-api-playground/\n--------------------------------------------------------------------------------------------------------------------------------------------\nFor your observability the API requests will be logged here!\nKeep this process up and running until you finish trying out the API.\n\nPress CTRL+C to quit\n```\n\n## API Endpoints\nThere are four types of pagination available, allowing you to fetch up to 200 dynamically-generated records with dummy data each time the server is run locally using the `playground start` command.\n\n### 1. Next Page URL Pagination\n- **Endpoint:** `/pagination/next_page_url`\n- **Method:** `GET`\n- **Query Parameters:**\n  | Parameter      | Type     | Required | Description                                             |\n  |----------------|----------|----------|---------------------------------------------------------|\n  | `order_by`     | string   | No       | Parameter to order by. Allowed values: `createdAt`, `updatedAt`. Default: `updatedAt`. |\n  | `order_type`   | string   | No       | Sorting order. Allowed values: `asc`, `desc`. Default: `asc`. |\n  | `per_page`     | integer  | No       | Number of items per page (1-50). Default: `10`.       |\n  | `updated_since`| string   | No       | Return items updated since this timestamp. Format: `YYYY-MM-DDTHH:MM:SSZ`. |\n- **Response:**\n  - `data`: Array of items for the current page.\n  - `total_items`: Total number of items after filtering.\n  - `page`: Current page number.\n  - `per_page`: Number of items per page.\n  - `next_page_url`: URL for the next page, if available.\n- **Sample Request:**\n    ```\n    curl -X GET http://127.0.0.1:5001/pagination/next_page_url\n    ```\n- **Sample Response:**\n    ```\n    {\n      \"data\": [\n        {\n          \"id\": \"1989d8f6-57a5-41bf-b21b-4d6de6db6de6\",\n          \"name\": \"XYZ\",\n          \"email\": \"xyz@example.net\",\n          \"address\": \"Some Random Address, AS 18073\",\n          \"company\": \"Nguyen, Nash and King\",\n          \"job\": \"Licensed conveyancer\",\n          \"createdAt\": \"2024-09-22T12:15:33Z\",\n          \"updatedAt\": \"2024-09-22T12:15:50Z\"\n        },\n        ...\n      ],\n      \"total_items\": 200,\n      \"page\": 1,\n      \"per_page\": 10,\n      \"next_page_url\": \"http://127.0.0.1:5001/pagination/next_page_url?page=2&per_page=10&order_by=updatedAt&order_type=asc\"\n    }\n    ```\n\n### 2. PAGE Number Pagination\n- **Endpoint:** `/pagination/page_number`\n- **Method:** `GET`\n- **Query Parameters:**\n  | Parameter      | Type     | Required | Description                                             |\n  |----------------|----------|----------|---------------------------------------------------------|\n  | `order_by`     | string   | No       | Parameter to order by. Allowed values: `createdAt`, `updatedAt`. Default: `updatedAt`. |\n  | `order_type`   | string   | No       | Sorting order. Allowed values: `asc`, `desc`. Default: `asc`. |\n  | `per_page`     | integer  | No       | Number of items per page (1-50). Default: `10`.       |\n  | `page`         | integer  | No       | Page number to retrieve (1 or higher). Default: `1`.   |\n  | `updated_since`| string   | No       | Return items updated since this timestamp. Format: `YYYY-MM-DDTHH:MM:SSZ`. |\n- **Response:**\n  - `data`: Array of items for the current page.\n  - `page`: Current page number.\n  - `page_size`: Number of items per page.\n  - `total_pages`: Total number of pages.\n  - `total_items`: Total number of items.\n- **Sample Request:**\n    ```\n    curl -X GET http://127.0.0.1:5001/pagination/page_number\n    ```\n- **Sample Response:**\n    ```\n    {\n      \"data\": [\n        {\n          \"id\": \"1989d8f6-57a5-41bf-b21b-4d6de6db6de6\",\n          \"name\": \"XYZ\",\n          \"email\": \"xyz@example.net\",\n          \"address\": \"Some Random Address, AS 18073\",\n          \"company\": \"Nguyen, Nash and King\",\n          \"job\": \"Licensed conveyancer\",\n          \"createdAt\": \"2024-09-22T12:15:33Z\",\n          \"updatedAt\": \"2024-09-22T12:15:50Z\"\n        },\n        ...\n      ],\n      \"page\": 1,\n      \"page_size\": 10,\n      \"total_pages\": 20,\n      \"total_items\": 200\n    }\n    ```\n\n### 3. Offset Pagination\n- **Endpoint:** `/pagination/offset`\n- **Method:** `GET`\n- **Query Parameters:**\n  | Parameter      | Type     | Required | Description                                             |\n  |----------------|----------|----------|---------------------------------------------------------|\n  | `order_by`     | string   | No       | Parameter to order by. Allowed values: `createdAt`, `updatedAt`. Default: `updatedAt`. |\n  | `order_type`   | string   | No       | Sorting order. Allowed values: `asc`, `desc`. Default: `asc`. |\n  | `limit`        | integer  | No       | Number of items to return (1-50). Default: `10`.      |\n  | `offset`       | integer  | No       | Number of items to skip before starting to collect the result set. Default: `0`. |\n  | `updated_since`| string   | No       | Return items updated since this timestamp. Format: `YYYY-MM-DDTHH:MM:SSZ`. |\n- **Response:**\n  - `data`: Array of items retrieved based on limit and offset.\n  - `offset`: The offset used in the request.\n  - `limit`: The limit used in the request.\n  - `total`: Total number of items after filtering.\n- **Sample Request:**\n    ```\n    curl -X GET http://127.0.0.1:5001/pagination/offset\n    ```\n- **Sample Response:**\n    ```\n    {\n      \"data\": [\n        {\n          \"id\": \"1989d8f6-57a5-41bf-b21b-4d6de6db6de6\",\n          \"name\": \"XYZ\",\n          \"email\": \"xyz@example.net\",\n          \"address\": \"Some Random Address, AS 18073\",\n          \"company\": \"Nguyen, Nash and King\",\n          \"job\": \"Licensed conveyancer\",\n          \"createdAt\": \"2024-09-22T12:15:33Z\",\n          \"updatedAt\": \"2024-09-22T12:15:50Z\"\n        },\n        ...\n      ],\n      \"offset\": 0,\n      \"limit\": 10,\n      \"total\": 200\n    }\n    ```\n\n### 4. Keyset Pagination\n- **Endpoint:** `/pagination/keyset`\n- **Method:** `GET`\n- **Query Parameters:**\n  | Parameter      | Type     | Required | Description                                             |\n  |----------------|----------|----------|---------------------------------------------------------|\n  | `scroll_param` | string   | No       | Base64 encoded timestamp to fetch items after this timestamp. |\n  | `updated_since`| string   | No       | Return items updated since this timestamp. Format: `YYYY-MM-DDTHH:MM:SSZ`. |\n- **Response:**\n  - `data`: Array of items retrieved based on keyset pagination.\n  - `total_count`: Total number of items after filtering.\n  - `scroll_param`: Base64 encoded parameter for the next page, if available.\n- **Sample Request:**\n    ```\n    curl -X GET http://127.0.0.1:5001/pagination/keyset\n    ```\n- **Sample Response:**\n    ```\n    {\n      \"data\": [\n        {\n          \"id\": \"1989d8f6-57a5-41bf-b21b-4d6de6db6de6\",\n          \"name\": \"XYZ\",\n          \"email\": \"xyz@example.net\",\n          \"address\": \"Some Random Address, AS 18073\",\n          \"company\": \"Nguyen, Nash and King\",\n          \"job\": \"Licensed conveyancer\",\n          \"createdAt\": \"2024-09-22T12:15:33Z\",\n          \"updatedAt\": \"2024-09-22T12:15:50Z\"\n        },\n        ...\n      ],\n      \"scroll_param\": \"MjAyNC0wOS0yNFQxNDozMTozN1o=\"\n    }\n    ```\n\n## Export Endpoints\nThere is one type of export available, allowing you to fetch up to 200 dynamically-generated records with dummy data each time the server is run locally using the `playground start` command.\n### 1. Export CSV\n- **Endpoint:** `/export/csv`\n- **Method:** `GET`\n- **Response:**\n  - CSV file \n- **Sample Request:**\n    ```\n    curl -X GET http://127.0.0.1:5001/export/csv/\n    ```\n- **Sample Response:**\n    ```\n    CSV File\n    ```\n\n## Auth Endpoints\nThere are following type of auth endpoints available, allowing you to fetch up to 20 dynamically-generated records with dummy data each time the server is run locally using the `playground start` command.\n>Note: The Auth credentials are dynamic and are displayed in the log message each time the server is run locally using the `playground start` command.\n\n### 1. Http Basic Auth\n- **Endpoint:** `/auth/http_basic`\n- **Method:** `GET`\n- **Request Headers:**\n  - `Authorization: Basic <Base64Encoded(YOUR_USERNAME:YOUR_PASSWORD)>`\n- **Response:**\n  - `data`: Array of items retrieved.\n- **Sample Request:**\n    ```\n    curl -X GET http://127.0.0.1:5001/auth/http_basic -H \"Authorization: Basic DN45HBWEDN3ECSAET5VSDVSDVSDS32ECSDCASC=\"\n    ```\n- **Sample Response:**\n    ```\n        {\n      \"data\": [\n        {\n          \"id\": \"1989d8f6-57a5-41bf-b21b-4d6de6db6de6\",\n          \"name\": \"XYZ\",\n          \"email\": \"xyz@example.net\",\n          \"address\": \"Some Random Address, AS 18073\",\n          \"company\": \"Nguyen, Nash and King\",\n          \"job\": \"Licensed conveyancer\",\n          \"createdAt\": \"2024-09-22T12:15:33Z\",\n          \"updatedAt\": \"2024-09-22T12:15:50Z\"\n        },\n        ...\n      ],\n    }\n    ```\n  \n### 2. Http Bearer Auth\n- **Endpoint:** `/auth/http_bearer`\n- **Method:** `GET`\n- **Request Headers:**\n  - `Authorization: Bearer <YOUR_BEARER_TOKEN>`\n- **Response:**\n  - `data`: Array of items retrieved.\n- **Sample Request:**\n    ```\n    curl -X GET http://127.0.0.1:5001/auth/http_bearer -H \"Authorization: Bearer D4DV3RVSDVY5CSAETXBsZS5E3RFDSCSDCDSCFDE4=\"\n    ```\n- **Sample Response:**\n    ```\n        {\n      \"data\": [\n        {\n          \"id\": \"1989d8f6-57a5-41bf-b21b-4d6de6db6de6\",\n          \"name\": \"XYZ\",\n          \"email\": \"xyz@example.net\",\n          \"address\": \"Some Random Address, AS 18073\",\n          \"company\": \"Nguyen, Nash and King\",\n          \"job\": \"Licensed conveyancer\",\n          \"createdAt\": \"2024-09-22T12:15:33Z\",\n          \"updatedAt\": \"2024-09-22T12:15:50Z\"\n        },\n        ...\n      ],\n    }\n    ```\n\n### 3. API Key Auth\n- **Endpoint:** `/auth/api_key`\n- **Method:** `GET`\n- **Request Headers:**\n  - `Authorization: apiKey <YOUR_API_KEY>`\n- **Response:**\n  - `data`: Array of items retrieved.\n- **Sample Request:**\n    ```\n    curl -X GET http://127.0.0.1:5001/auth/api_key -H \"Authorization: apiKey D4CVE3MDlA23DCCSAETXBsZS5jb2063VERSCI4Y23RVSD=\"\n    ```\n- **Sample Response:**\n    ```\n        {\n      \"data\": [\n        {\n          \"id\": \"1989d8f6-57a5-41bf-b21b-4d6de6db6de6\",\n          \"name\": \"XYZ\",\n          \"email\": \"xyz@example.net\",\n          \"address\": \"Some Random Address, AS 18073\",\n          \"company\": \"Nguyen, Nash and King\",\n          \"job\": \"Licensed conveyancer\",\n          \"createdAt\": \"2024-09-22T12:15:33Z\",\n          \"updatedAt\": \"2024-09-22T12:15:50Z\"\n        },\n        ...\n      ],\n    }\n    ```\n  \n### 4. Session Token Auth\n#### Login Endpoint\n- **Endpoint:** `/auth/session_token/login`\n- **Method:** `POST`\n- **Request Body Parameters:**\n  | Parameter      | Type     | Required | Description                                             |\n  |----------------|----------|----------|---------------------------------------------------------|\n  | `username` | string   | Yes       | Your username. |\n  | `password` | string   | Yes       | Your password |\n- **Response:**\n  - `token`: String token value\n- **Sample Request:**\n  ```\n  curl -X POST http://127.0.0.1:5001/auth/session_token/login -H \"Content-Type: application/json\" \\\n   -d '{\"username\": \"test_user\", \"password\": \"test_password\"}'\n  ```\n- **Sample Response:**\n  ```\n  {\n    \"token\": \"ZDE3MDlAZXhhbXBsZS5jb206YzYzZjI4Y2JiNQ==\"\n  }\n  ```\n\n#### Data Endpoint\n- **Endpoint:** `/auth/session_token/data`\n- **Method:** `GET`\n- **Request Headers:**\n  - `Authorization: Token <YOUR_SESSION_TOKEN>`\n- **Response:**\n  - `data`: Array of items retrieved.\n- **Sample Request:**\n  ```\n  curl -X GET http://127.0.0.1:5001/auth/session_token/data -H \"Authorization: Token ZDE3MDlAZXhhbXBsZS5jb206YzYzZjI4Y2JiNQ==\"\n  ```\n- **Sample Response:**\n    ```\n        {\n      \"data\": [\n        {\n          \"id\": \"1989d8f6-57a5-41bf-b21b-4d6de6db6de6\",\n          \"name\": \"XYZ\",\n          \"email\": \"xyz@example.net\",\n          \"address\": \"Some Random Address, AS 18073\",\n          \"company\": \"Nguyen, Nash and King\",\n          \"job\": \"Licensed conveyancer\",\n          \"createdAt\": \"2024-09-22T12:15:33Z\",\n          \"updatedAt\": \"2024-09-22T12:15:50Z\"\n        },\n        ...\n      ],\n    }\n    ```\n\n\n## Error Responses\n- **400 Bad Request:** Returned for validation errors or unexpected query parameters.\n  - **Example:** `{\"error\": \"Invalid value for 'order_by'. Use 'createdAt' or 'updatedAt'.\"}`\n\n\n## **Maintenance**\nThis package is actively maintained by Fivetran Developers. Please reach out to our [Support team](https://support.fivetran.com/hc/en-us) for any inquiries.\n"], "modules": [{"name": "fivetran_api_playground", "documentation": [], "functions": [{"name": "fivetran_api_playground.get_next_page_url_pagination", "asynchronous": false, "params": [], "returns": null, "documentation": []}, {"name": "fivetran_api_playground.get_page_number_pagination", "asynchronous": false, "params": [], "returns": null, "documentation": []}, {"name": "fivetran_api_playground.get_offset_pagination", "asynchronous": false, "params": [], "returns": null, "documentation": []}, {"name": "fivetran_api_playground.get_keyset_pagination", "asynchronous": false, "params": [], "returns": null, "documentation": []}, {"name": "fivetran_api_playground.check_newer_version", "asynchronous": false, "params": [], "returns": null, "documentation": []}, {"name": "fivetran_api_playground.export_data", "asynchronous": false, "params": [], "returns": null, "documentation": []}, {"name": "fivetran_api_playground.clean_string_for_csv", "asynchronous": false, "params": [{"name": "input_string", "type": null, "default": null}], "returns": null, "documentation": []}, {"name": "fivetran_api_playground.auth_http_basic", "asynchronous": false, "params": [], "returns": null, "documentation": []}, {"name": "fivetran_api_playground.auth_http_bearer", "asynchronous": false, "params": [], "returns": null, "documentation": []}, {"name": "fivetran_api_playground.auth_api_key", "asynchronous": false, "params": [], "returns": null, "documentation": []}, {"name": "fivetran_api_playground.auth_session_token_login", "asynchronous": false, "params": [], "returns": null, "documentation": []}, {"name": "fivetran_api_playground.auth_session_token_data", "asynchronous": false, "params": [], "returns": null, "documentation": []}, {"name": "fivetran_api_playground.main", "asynchronous": false, "params": [], "returns": null, "documentation": ["The main entry point for the script.\nParses command line arguments and passes them to connector object methods"]}], "variables": [{"name": "fivetran_api_playground.__version__", "type": null, "documentation": []}, {"name": "fivetran_api_playground.app", "type": null, "documentation": []}, {"name": "fivetran_api_playground.fake", "type": null, "documentation": []}, {"name": "fivetran_api_playground.items", "type": null, "documentation": []}, {"name": "fivetran_api_playground.MAX_RECORDS", "type": null, "documentation": ["Total Records that API will serve for each endpoint"]}, {"name": "fivetran_api_playground.DEFAULT_ORDER_BY", "type": null, "documentation": []}, {"name": "fivetran_api_playground.DEFAULT_ORDER_TYPE", "type": null, "documentation": []}, {"name": "fivetran_api_playground.DEFAULT_PAGE_SIZE", "type": null, "documentation": []}, {"name": "fivetran_api_playground.ROOT_LOCATION", "type": null, "documentation": []}, {"name": "fivetran_api_playground.LAST_VERSION_CHECK_FILE", "type": null, "documentation": []}, {"name": "fivetran_api_playground.ONE_DAY_IN_SEC", "type": null, "documentation": []}, {"name": "fivetran_api_playground.VALID_COMMANDS", "type": null, "documentation": []}, {"name": "fivetran_api_playground.DATE_TIME_FORMAT", "type": null, "documentation": []}, {"name": "fivetran_api_playground.DATE_TIME_FORMAT_WITHOUT_Z", "type": null, "documentation": []}, {"name": "fivetran_api_playground.APPLICATION_JSON", "type": null, "documentation": []}, {"name": "fivetran_api_playground.INVALID_DATE_FORMAT_MESSAGE", "type": null, "documentation": []}, {"name": "fivetran_api_playground.INVALID_DATE_FORMAT_MISSING_Z_MESSAGE", "type": null, "documentation": []}, {"name": "fivetran_api_playground.PYPI_PACKAGE_DETAILS_URL", "type": null, "documentation": []}, {"name": "fivetran_api_playground.MAX_RETRIES", "type": null, "documentation": []}, {"name": "fivetran_api_playground.HTTP_BASIC_USERNAME", "type": null, "documentation": []}, {"name": "fivetran_api_playground.HTTP_BASIC_PASSWORD", "type": null, "documentation": []}, {"name": "fivetran_api_playground.HTTP_BEARER_TOKEN", "type": null, "documentation": []}, {"name": "fivetran_api_playground.API_KEY", "type": null, "documentation": []}, {"name": "fivetran_api_playground.SESSION_AUTH_USERNAME", "type": null, "documentation": []}, {"name": "fivetran_api_playground.SESSION_AUTH_PASSWORD", "type": null, "documentation": []}, {"name": "fivetran_api_playground.record_creation_time", "type": null, "documentation": []}, {"name": "fivetran_api_playground.user", "type": null, "documentation": []}], "classes": [{"name": "fivetran_api_playground.CustomJSONEncoder", "bases": ["json.JSONEncoder"], "methods": [{"name": "fivetran_api_playground.CustomJSONEncoder.encode", "asynchronous": false, "params": [{"name": "self", "type": null, "default": null}, {"name": "obj", "type": null, "default": null}], "returns": null, "documentation": []}], "class_variables": [], "instance_variables": [], "inner_classes": [], "documentation": ["Custom JSON encoder to preserve order in API Response"]}], "exports": [{"name": "fivetran_api_playground.abort", "xref": {"fqname": "flask.abort", "project": "flask"}}, {"name": "fivetran_api_playground.datetime", "xref": {"fqname": "datetime.datetime", "project": null}}, {"name": "fivetran_api_playground.Faker", "xref": {"fqname": "faker.Faker", "project": "faker"}}, {"name": "fivetran_api_playground.Flask", "xref": {"fqname": "flask.Flask", "project": "flask"}}, {"name": "fivetran_api_playground.jsonify", "xref": {"fqname": "flask.jsonify", "project": "flask"}}, {"name": "fivetran_api_playground.make_response", "xref": {"fqname": "flask.make_response", "project": "flask"}}, {"name": "fivetran_api_playground.OrderedDict", "xref": {"fqname": "collections.OrderedDict", "project": null}}, {"name": "fivetran_api_playground.request", "xref": {"fqname": "flask.request", "project": "flask"}}, {"name": "fivetran_api_playground.Response", "xref": {"fqname": "flask.Response", "project": "flask"}}, {"name": "fivetran_api_playground.timedelta", "xref": {"fqname": "datetime.timedelta", "project": null}}]}]}