{"name": "udata-hydra-csvapi", "metadata": {"name": "udata-hydra-csvapi", "version": "0.2.3", "classifiers": ["License :: OSI Approved :: MIT License", "Programming Language :: Python :: 3", "Programming Language :: Python :: 3.11", "Programming Language :: Python :: 3.12"], "home_page": null, "license": "MIT", "documentation_url": null, "dependencies": ["aiohttp", "aiohttp-cors", "aiohttp-swagger", "sentry-sdk"], "summary": "API for CSV converted by udata-hydra", "upload_time": 1732803867}, "documentation": ["# Api-tabular\n\nThis connects to [hydra](https://github.com/datagouv/hydra) and serves the converted CSVs as an API.\n\n## Run locally\n\nStart [hydra](https://github.com/datagouv/hydra) via `docker compose`.\n\nLaunch this project:\n\n```shell\ndocker compose up\n```\n\nYou can now access the raw postgrest API on http://localhost:8080.\n\nNow you can launch the proxy (ie the app):\n\n```shell\npoetry install\npoetry run adev runserver -p8005 api_tabular/app.py        # Api related to apified CSV files by udata-hydra\npoetry run adev runserver -p8005 api_tabular/metrics.py    # Api related to udata's metrics\n```\n\nAnd query postgrest via the proxy using a `resource_id`, cf below. Test resource_id is `aaaaaaaa-1111-bbbb-2222-cccccccccccc`\n\n## API\n\n### Meta informations on resource\n\n```shell\ncurl http://localhost:8005/api/resources/aaaaaaaa-1111-bbbb-2222-cccccccccccc/\n```\n\n```json\n{\n  \"created_at\": \"2023-04-21T22:54:22.043492+00:00\",\n  \"url\": \"https://data.gouv.fr/datasets/example/resources/fake.csv\",\n  \"links\": [\n    {\n      \"href\": \"/api/resources/aaaaaaaa-1111-bbbb-2222-cccccccccccc/profile/\",\n      \"type\": \"GET\",\n      \"rel\": \"profile\"\n    },\n    {\n      \"href\": \"/api/resources/aaaaaaaa-1111-bbbb-2222-cccccccccccc/data/\",\n      \"type\": \"GET\",\n      \"rel\": \"data\"\n    },\n    {\n      \"href\": \"/api/resources/aaaaaaaa-1111-bbbb-2222-cccccccccccc/swagger/\",\n      \"type\": \"GET\",\n      \"rel\": \"swagger\"\n    }\n  ]\n}\n```\n\n### Profile (csv-detective output) for a resource\n\n```shell\ncurl http://localhost:8005/api/resources/aaaaaaaa-1111-bbbb-2222-cccccccccccc/profile/\n```\n\n```json\n{\n  \"profile\": {\n    \"header\": [\n        \"id\",\n        \"score\",\n        \"decompte\",\n        \"is_true\",\n        \"birth\",\n        \"liste\"\n    ]\n  },\n  \"...\": \"...\"\n}\n```\n\n### Data for a resource (ie resource API)\n\n```shell\ncurl http://localhost:8005/api/resources/aaaaaaaa-1111-bbbb-2222-cccccccccccc/data/\n```\n\n```json\n{\n  \"data\": [\n    {\n        \"__id\": 1,\n        \"id\": \" 8c7a6452-9295-4db2-b692-34104574fded\",\n        \"score\": 0.708,\n        \"decompte\": 90,\n        \"is_true\": false,\n        \"birth\": \"1949-07-16\",\n        \"liste\": \"[0]\"\n    },\n    ...\n  ],\n  \"links\": {\n      \"profile\": \"http://localhost:8005/api/resources/aaaaaaaa-1111-bbbb-2222-cccccccccccc/profile/\",\n      \"swagger\": \"http://localhost:8005/api/resources/aaaaaaaa-1111-bbbb-2222-cccccccccccc/swagger/\",\n      \"next\": \"http://localhost:8005/api/resources/aaaaaaaa-1111-bbbb-2222-cccccccccccc/data/?page=2&page_size=20\",\n      \"prev\": null\n  },\n  \"meta\": {\n      \"page\": 1,\n      \"page_size\": 20,\n      \"total\": 1000\n  }\n}\n```\n\nThis endpoint can be queried with the following operators as query string (replacing `column_name` with the name of an actual column), if the column type allows it (see the swagger for each column's allowed parameter):\n\n```\n# sort by column\ncolumn_name__sort=asc\ncolumn_name__sort=desc\n\n# exact value\ncolumn_name__exact=value\n\n# differs\ncolumn_name__differs=value\n\n# contains (for strings only)\ncolumn_name__contains=value\n\n# in (value in list)\ncolumn_name__in=value1,value2,value3\n\n# less\ncolumn_name__less=value\n\n# greater\ncolumn_name__greater=value\n\n# strictly less\ncolumn_name__strictly_less=value\n\n# strictly greater\ncolumn_name__strictly_greater=value\n\n# group by values\ncolumn_name__groupby\n\n# count values\ncolumn_name__count\n\n# mean / average\ncolumn_name__avg\n\n# minimum\ncolumn_name__min\n\n# maximum\ncolumn_name__max\n\n# sum\ncolumn_name__sum\n```\n\n> /!\\ WARNING: aggregation requests are only available for resources that are listed in the `ALLOW_AGGREGATION` list of the config file.\n\n> NB : passing an aggregation operator (`count`, `avg`, `min`, `max`, `sum`) returns a column that is named `<column_name>__<operator>` (for instance: `?birth__groupby&score__sum` will return a list of dicts with the keys `birth` and `score__sum`).\n\nFor instance:\n```shell\ncurl http://localhost:8005/api/resources/aaaaaaaa-1111-bbbb-2222-cccccccccccc/data/?score__greater=0.9&decompte__exact=13\n```\nreturns\n```json\n{\n  \"data\": [\n    {\n      \"__id\": 52,\n      \"id\": \" 5174f26d-d62b-4adb-a43a-c3b6288fa2f6\",\n      \"score\": 0.985,\n      \"decompte\": 13,\n      \"is_true\": false,\n      \"birth\": \"1980-03-23\",\n      \"liste\": \"[0]\"\n    },\n    {\n      \"__id\": 543,\n      \"id\": \" 8705df7c-8a6a-49e2-9514-cf2fb532525e\",\n      \"score\": 0.955,\n      \"decompte\": 13,\n      \"is_true\": true,\n      \"birth\": \"1965-02-06\",\n      \"liste\": \"[0, 1, 2]\"\n    }\n  ],\n  \"links\": {\n    \"profile\": \"http://localhost:8005/api/resources/aaaaaaaa-1111-bbbb-2222-cccccccccccc/profile/\",\n    \"swagger\": \"http://localhost:8005/api/resources/aaaaaaaa-1111-bbbb-2222-cccccccccccc/swagger/\",\n    \"next\": null,\n    \"prev\": null\n  },\n  \"meta\": {\n    \"page\": 1,\n    \"page_size\": 20,\n    \"total\": 2\n  }\n}\n```\n\nWith filters and aggregators (filtering is always done **before** aggregation, no matter the order in the parameters):\n```shell\ncurl http://localhost:8005/api/resources/aaaaaaaa-1111-bbbb-2222-cccccccccccc/data/?decompte__groupby&birth__less=1996&score__avg\n```\ni.e. `decompte` and average of `score` for all rows where `birth<=\"1996\"`, grouped by `decompte`, returns\n```json\n{\n    \"data\": [\n        {\n            \"decompte\": 55,\n            \"score__avg\": 0.7123333333333334\n        },\n        {\n            \"decompte\": 27,\n            \"score__avg\": 0.6068888888888889\n        },\n        {\n            \"decompte\": 23,\n            \"score__avg\": 0.4603333333333334\n        },\n        ...\n    ]\n}\n```\n\nPagination is made through queries with `page` and `page_size`:\n```shell\ncurl http://localhost:8005/api/resources/aaaaaaaa-1111-bbbb-2222-cccccccccccc/data/?page=2&page_size=30\n```\n\n\n## Contributing\n\n### Pre-commit hook\n\nThis repository uses a [pre-commit](https://pre-commit.com/) hook which lint and format code before each commit.\nPlease install it with:\n```shell\npoetry run pre-commit install\n```\n\n### Lint and format code\n\nTo lint, format and sort imports, this repository uses [Ruff](https://astral.sh/ruff/).\nYou can run the following command to lint and format the code:\n```shell\npoetry run ruff check --fix && poetry run ruff format\n```\n\n### Releases\n\nThe release process uses [bump'X](https://github.com/datagouv/bumpx).\n"], "modules": [{"name": "api_tabular.app", "documentation": [], "functions": [{"name": "api_tabular.app.resource_meta", "asynchronous": true, "params": [{"name": "request", "type": null, "default": null}], "returns": null, "documentation": []}, {"name": "api_tabular.app.resource_profile", "asynchronous": true, "params": [{"name": "request", "type": null, "default": null}], "returns": null, "documentation": []}, {"name": "api_tabular.app.resource_swagger", "asynchronous": true, "params": [{"name": "request", "type": null, "default": null}], "returns": null, "documentation": []}, {"name": "api_tabular.app.resource_data", "asynchronous": true, "params": [{"name": "request", "type": null, "default": null}], "returns": null, "documentation": []}, {"name": "api_tabular.app.resource_data_csv", "asynchronous": true, "params": [{"name": "request", "type": null, "default": null}], "returns": null, "documentation": []}, {"name": "api_tabular.app.get_health", "asynchronous": true, "params": [{"name": "request", "type": null, "default": null}], "returns": null, "documentation": ["Return health check status"]}, {"name": "api_tabular.app.app_factory", "asynchronous": true, "params": [], "returns": null, "documentation": []}, {"name": "api_tabular.app.run", "asynchronous": false, "params": [], "returns": null, "documentation": []}], "variables": [{"name": "api_tabular.app.routes", "type": null, "documentation": []}], "classes": [], "exports": []}, {"name": "api_tabular.query", "documentation": [], "functions": [{"name": "api_tabular.query.get_resource", "asynchronous": true, "params": [{"name": "session", "type": {"name": "ClientSession", "xref": {"fqname": "aiohttp.ClientSession", "project": "aiohttp"}, "params": null}, "default": null}, {"name": "resource_id", "type": {"name": "str", "xref": {"fqname": "functions.str", "project": "--std--"}, "params": null}, "default": null}, {"name": "columns", "type": {"name": "list", "xref": {"fqname": "functions.list", "project": "--std--"}, "params": null}, "default": null}], "returns": null, "documentation": []}, {"name": "api_tabular.query.get_resource_data", "asynchronous": true, "params": [{"name": "session", "type": {"name": "ClientSession", "xref": {"fqname": "aiohttp.ClientSession", "project": "aiohttp"}, "params": null}, "default": null}, {"name": "resource", "type": {"name": "dict", "xref": {"fqname": "functions.dict", "project": "--std--"}, "params": null}, "default": null}, {"name": "sql_query", "type": {"name": "str", "xref": {"fqname": "functions.str", "project": "--std--"}, "params": null}, "default": null}], "returns": null, "documentation": []}, {"name": "api_tabular.query.get_resource_data_streamed", "asynchronous": true, "params": [{"name": "session", "type": {"name": "ClientSession", "xref": {"fqname": "aiohttp.ClientSession", "project": "aiohttp"}, "params": null}, "default": null}, {"name": "model", "type": {"name": "str", "xref": {"fqname": "functions.str", "project": "--std--"}, "params": null}, "default": null}, {"name": "sql_query", "type": {"name": "str", "xref": {"fqname": "functions.str", "project": "--std--"}, "params": null}, "default": null}, {"name": "accept_format", "type": {"name": "str", "xref": {"fqname": "functions.str", "project": "--std--"}, "params": null}, "default": "..."}, {"name": "batch_size", "type": {"name": "int", "xref": {"fqname": "functions.int", "project": "--std--"}, "params": null}, "default": "..."}], "returns": null, "documentation": []}], "variables": [], "classes": [], "exports": []}, {"name": "api_tabular", "documentation": [], "functions": [], "variables": [{"name": "api_tabular.config", "type": null, "documentation": []}], "classes": [{"name": "api_tabular.Configurator", "bases": [], "methods": [{"name": "api_tabular.Configurator.__init__", "asynchronous": false, "params": [{"name": "self", "type": null, "default": null}], "returns": null, "documentation": []}, {"name": "api_tabular.Configurator.configure", "asynchronous": false, "params": [{"name": "self", "type": null, "default": null}], "returns": null, "documentation": []}, {"name": "api_tabular.Configurator.override", "asynchronous": false, "params": [{"name": "self", "type": null, "default": null}, {"name": "**kwargs", "type": null, "default": null}], "returns": null, "documentation": []}, {"name": "api_tabular.Configurator.check", "asynchronous": false, "params": [{"name": "self", "type": null, "default": null}], "returns": null, "documentation": ["Sanity check on config"]}, {"name": "api_tabular.Configurator.__getattr__", "asynchronous": false, "params": [{"name": "self", "type": null, "default": null}, {"name": "__name", "type": null, "default": null}], "returns": null, "documentation": []}, {"name": "api_tabular.Configurator.__dict__", "asynchronous": false, "params": [{"name": "self", "type": null, "default": null}], "returns": null, "documentation": []}], "class_variables": [{"name": "api_tabular.Configurator.configuration", "type": null, "documentation": []}], "instance_variables": [], "inner_classes": [], "documentation": ["Loads a dict of config from TOML file(s) and behaves like an object, ie config.VALUE"]}], "exports": [{"name": "api_tabular.Path", "xref": {"fqname": "pathlib.Path", "project": null}}]}, {"name": "api_tabular.utils", "documentation": [], "functions": [{"name": "api_tabular.utils.is_aggregation_allowed", "asynchronous": false, "params": [{"name": "resource_id", "type": {"name": "str", "xref": {"fqname": "functions.str", "project": "--std--"}, "params": null}, "default": null}], "returns": null, "documentation": []}, {"name": "api_tabular.utils.get_app_version", "asynchronous": true, "params": [], "returns": {"name": "str", "xref": {"fqname": "functions.str", "project": "--std--"}, "params": null}, "documentation": ["Parse pyproject.toml and return the version or an error."]}, {"name": "api_tabular.utils.build_sql_query_string", "asynchronous": false, "params": [{"name": "request_arg", "type": {"name": "list", "xref": {"fqname": "functions.list", "project": "--std--"}, "params": null}, "default": null}, {"name": "resource_id", "type": {"name": "Optional", "xref": {"fqname": "typing.Optional", "project": "--std--"}, "params": [{"name": "str", "xref": {"fqname": "functions.str", "project": "--std--"}, "params": null}]}, "default": "..."}, {"name": "page_size", "type": {"name": "int", "xref": {"fqname": "functions.int", "project": "--std--"}, "params": null}, "default": "..."}, {"name": "offset", "type": {"name": "int", "xref": {"fqname": "functions.int", "project": "--std--"}, "params": null}, "default": "..."}], "returns": {"name": "str", "xref": {"fqname": "functions.str", "project": "--std--"}, "params": null}, "documentation": []}, {"name": "api_tabular.utils.get_column_and_operator", "asynchronous": false, "params": [{"name": "argument", "type": {"name": "str", "xref": {"fqname": "functions.str", "project": "--std--"}, "params": null}, "default": null}], "returns": {"name": "tuple", "xref": {"fqname": "functions.tuple", "project": "--std--"}, "params": [{"name": "str", "xref": {"fqname": "functions.str", "project": "--std--"}, "params": null}, {"name": "str", "xref": {"fqname": "functions.str", "project": "--std--"}, "params": null}]}, "documentation": []}, {"name": "api_tabular.utils.add_filter", "asynchronous": false, "params": [{"name": "argument", "type": {"name": "str", "xref": {"fqname": "functions.str", "project": "--std--"}, "params": null}, "default": null}, {"name": "value", "type": {"name": "str", "xref": {"fqname": "functions.str", "project": "--std--"}, "params": null}, "default": null}], "returns": {"name": "tuple", "xref": {"fqname": "functions.tuple", "project": "--std--"}, "params": [{"name": "Optional", "xref": {"fqname": "typing.Optional", "project": "--std--"}, "params": [{"name": "str", "xref": {"fqname": "functions.str", "project": "--std--"}, "params": null}]}, {"name": "bool", "xref": {"fqname": "functions.bool", "project": "--std--"}, "params": null}]}, "documentation": []}, {"name": "api_tabular.utils.add_aggregator", "asynchronous": false, "params": [{"name": "argument", "type": {"name": "str", "xref": {"fqname": "functions.str", "project": "--std--"}, "params": null}, "default": null}], "returns": {"name": "tuple", "xref": {"fqname": "functions.tuple", "project": "--std--"}, "params": [{"name": "str", "xref": {"fqname": "functions.str", "project": "--std--"}, "params": null}, {"name": "str", "xref": {"fqname": "functions.str", "project": "--std--"}, "params": null}]}, "documentation": []}, {"name": "api_tabular.utils.process_total", "asynchronous": false, "params": [{"name": "res", "type": {"name": "Response", "xref": {"fqname": "aiohttp.web_response.Response", "project": "aiohttp"}, "params": null}, "default": null}], "returns": {"name": "int", "xref": {"fqname": "functions.int", "project": "--std--"}, "params": null}, "documentation": []}, {"name": "api_tabular.utils.external_url", "asynchronous": false, "params": [{"name": "url", "type": null, "default": null}], "returns": {"name": "str", "xref": {"fqname": "functions.str", "project": "--std--"}, "params": null}, "documentation": []}, {"name": "api_tabular.utils.build_link_with_page", "asynchronous": false, "params": [{"name": "request", "type": {"name": "Request", "xref": {"fqname": "aiohttp.web_request.Request", "project": "aiohttp"}, "params": null}, "default": null}, {"name": "query_string", "type": {"name": "str", "xref": {"fqname": "functions.str", "project": "--std--"}, "params": null}, "default": null}, {"name": "page", "type": {"name": "int", "xref": {"fqname": "functions.int", "project": "--std--"}, "params": null}, "default": null}, {"name": "page_size", "type": {"name": "int", "xref": {"fqname": "functions.int", "project": "--std--"}, "params": null}, "default": null}], "returns": {"name": "str", "xref": {"fqname": "functions.str", "project": "--std--"}, "params": null}, "documentation": []}, {"name": "api_tabular.utils.url_for", "asynchronous": false, "params": [{"name": "request", "type": {"name": "Request", "xref": {"fqname": "aiohttp.web_request.Request", "project": "aiohttp"}, "params": null}, "default": null}, {"name": "route", "type": {"name": "str", "xref": {"fqname": "functions.str", "project": "--std--"}, "params": null}, "default": null}, {"name": "*args", "type": null, "default": null}, {"name": "**kwargs", "type": null, "default": null}], "returns": {"name": "str", "xref": {"fqname": "functions.str", "project": "--std--"}, "params": null}, "documentation": []}, {"name": "api_tabular.utils.swagger_parameters", "asynchronous": false, "params": [{"name": "resource_columns", "type": {"name": "dict", "xref": {"fqname": "functions.dict", "project": "--std--"}, "params": null}, "default": null}, {"name": "resource_id", "type": {"name": "str", "xref": {"fqname": "functions.str", "project": "--std--"}, "params": null}, "default": null}], "returns": {"name": "list", "xref": {"fqname": "functions.list", "project": "--std--"}, "params": null}, "documentation": []}, {"name": "api_tabular.utils.swagger_component", "asynchronous": false, "params": [{"name": "resource_columns", "type": {"name": "dict", "xref": {"fqname": "functions.dict", "project": "--std--"}, "params": null}, "default": null}], "returns": {"name": "dict", "xref": {"fqname": "functions.dict", "project": "--std--"}, "params": null}, "documentation": []}, {"name": "api_tabular.utils.build_swagger_file", "asynchronous": false, "params": [{"name": "resource_columns", "type": {"name": "dict", "xref": {"fqname": "functions.dict", "project": "--std--"}, "params": null}, "default": null}, {"name": "rid", "type": {"name": "str", "xref": {"fqname": "functions.str", "project": "--std--"}, "params": null}, "default": null}], "returns": {"name": "str", "xref": {"fqname": "functions.str", "project": "--std--"}, "params": null}, "documentation": []}], "variables": [{"name": "api_tabular.utils.TYPE_POSSIBILITIES", "type": null, "documentation": []}, {"name": "api_tabular.utils.MAP_TYPES", "type": null, "documentation": []}, {"name": "api_tabular.utils.OPERATORS_DESCRIPTIONS", "type": null, "documentation": []}], "classes": [], "exports": []}, {"name": "api_tabular.error", "documentation": [], "functions": [{"name": "api_tabular.error.handle_exception", "asynchronous": false, "params": [{"name": "status", "type": {"name": "int", "xref": {"fqname": "functions.int", "project": "--std--"}, "params": null}, "default": null}, {"name": "title", "type": {"name": "str", "xref": {"fqname": "functions.str", "project": "--std--"}, "params": null}, "default": null}, {"name": "detail", "type": {"name": "str | dict", "xref": null, "params": null}, "default": null}, {"name": "resource_id", "type": {"name": "str | None", "xref": null, "params": null}, "default": "..."}], "returns": null, "documentation": []}], "variables": [], "classes": [{"name": "api_tabular.error.QueryException", "bases": ["web.HTTPException"], "methods": [{"name": "api_tabular.error.QueryException.__init__", "asynchronous": false, "params": [{"name": "self", "type": null, "default": null}, {"name": "status", "type": null, "default": null}, {"name": "error_code", "type": null, "default": null}, {"name": "title", "type": null, "default": null}, {"name": "detail", "type": null, "default": null}], "returns": {"name": "None", "xref": {"fqname": "constants.None", "project": "--std--"}, "params": null}, "documentation": []}], "class_variables": [], "instance_variables": [], "inner_classes": [], "documentation": ["Re-raise an exception from postgrest as aiohttp exception"]}], "exports": []}, {"name": "api_tabular.metrics", "documentation": [], "functions": [{"name": "api_tabular.metrics.get_object_data", "asynchronous": true, "params": [{"name": "session", "type": {"name": "ClientSession", "xref": {"fqname": "aiohttp.ClientSession", "project": "aiohttp"}, "params": null}, "default": null}, {"name": "model", "type": {"name": "str", "xref": {"fqname": "functions.str", "project": "--std--"}, "params": null}, "default": null}, {"name": "sql_query", "type": {"name": "str", "xref": {"fqname": "functions.str", "project": "--std--"}, "params": null}, "default": null}], "returns": null, "documentation": []}, {"name": "api_tabular.metrics.get_object_data_streamed", "asynchronous": true, "params": [{"name": "session", "type": {"name": "ClientSession", "xref": {"fqname": "aiohttp.ClientSession", "project": "aiohttp"}, "params": null}, "default": null}, {"name": "model", "type": {"name": "str", "xref": {"fqname": "functions.str", "project": "--std--"}, "params": null}, "default": null}, {"name": "sql_query", "type": {"name": "str", "xref": {"fqname": "functions.str", "project": "--std--"}, "params": null}, "default": null}, {"name": "accept_format", "type": {"name": "str", "xref": {"fqname": "functions.str", "project": "--std--"}, "params": null}, "default": "..."}, {"name": "batch_size", "type": {"name": "int", "xref": {"fqname": "functions.int", "project": "--std--"}, "params": null}, "default": "..."}], "returns": null, "documentation": []}, {"name": "api_tabular.metrics.metrics_data", "asynchronous": true, "params": [{"name": "request", "type": null, "default": null}], "returns": null, "documentation": ["Retrieve metric data for a specified model with optional filtering and sorting."]}, {"name": "api_tabular.metrics.metrics_data_csv", "asynchronous": true, "params": [{"name": "request", "type": null, "default": null}], "returns": null, "documentation": []}, {"name": "api_tabular.metrics.get_health", "asynchronous": true, "params": [{"name": "request", "type": null, "default": null}], "returns": null, "documentation": []}, {"name": "api_tabular.metrics.app_factory", "asynchronous": true, "params": [], "returns": null, "documentation": []}, {"name": "api_tabular.metrics.run", "asynchronous": false, "params": [], "returns": null, "documentation": []}], "variables": [{"name": "api_tabular.metrics.routes", "type": null, "documentation": []}], "classes": [], "exports": []}]}